module invent.kde.org/cblack/kijetesantakalu_lukin

go 1.14

require (
	github.com/BurntSushi/toml v0.3.1
	github.com/alecthomas/repr v0.0.0-20200325044227-4184120f674c
	github.com/gdamore/tcell v1.3.0
	github.com/go-telegram-bot-api/telegram-bot-api v4.6.4+incompatible
	github.com/jinzhu/gorm v1.9.12
	github.com/rivo/tview v0.0.0-20200528200248-fe953220389f
	github.com/technoweenie/multipartstreamer v1.0.1 // indirect
	github.com/xanzy/go-gitlab v0.32.1
	golang.org/x/time v0.0.0-20191024005414-555d28b269f0
)
